digraph maycg {
	f0[label="showHelp"]
	f1[label="fprintf"]
	f2[label="fputs"]
	f3[label="exit"]
	f4[label="print_table"]
	f6[label="strlen"]
	f7[label="printf"]
	f8[label="main"]
	f9[label="process_options"]
	f10[label="ascii"]
	f11[label="speak"]
	f12[label="strchr"]
	f13[label="__isoc99_sscanf"]
	f14[label="strcmp"]
	f15[label="stricmp"]
	f16[label="__ctype_b_loc"]
	f17[label="strspn"]
	f18[label="atob"]
	f19[label="tolower"]
	f20[label="btoa"]
	f21[label="putchar"]
	f22[label="getopt"]
	f0->f1[label="func1"]
	f0->f2[label=""]
	f0->f2[label=""]
	f0->f2[label=""]
	f0->f2[label=""]
	f0->f2[label=""]
	f0->f2[label=""]
	f0->f2[label=""]
	f0->f2[label=""]
	f0->f2[label=""]
	f0->f2[label=""]
	f0->f2[label=""]
	f0->f2[label=""]
	f0->f2[label=""]
	f0->f2[label=""]
	f0->f2[label=""]
	f0->f2[label=""]
	f0->f2[label=""]
	f0->f2[label=""]
	f0->f2[label=""]
	f0->f2[label=""]
	f0->f2[label=""]
	f0->f2[label=""]
	f0->f3[label=""]
	f4->f6[label=""]
	f4->f7[label=""]
	f4->f7[label=""]
	f4->f7[label=""]
	f4->f7[label=""]
	f8->f9[label=""]
	f8->f0[label=""]
	f8->f10[label=""]
	f8->f3[label=""]
	f9->f22[label=""]
	f9->f4[label=""]
	f9->f3[label=""]
	f9->f4[label=""]
	f9->f3[label=""]
	f9->f4[label=""]
	f9->f3[label=""]
	f9->f7[label=""]
	f9->f3[label=""]
	f10->f6[label=""]
	f10->f11[label=""]
	f10->f12[label=""]
	f10->f13[label=""]
	f10->f11[label=""]
	f10->f11[label=""]
	f10->f14[label=""]
	f10->f11[label=""]
	f10->f11[label=""]
	f10->f12[label=""]
	f10->f14[label=""]
	f10->f11[label=""]
	f10->f15[label=""]
	f10->f11[label=""]
	f10->f15[label=""]
	f10->f11[label=""]
	f10->f16[label=""]
	f10->f15[label=""]
	f10->f14[label=""]
	f10->f11[label=""]
	f10->f17[label=""]
	f10->f13[label=""]
	f10->f17[label=""]
	f10->f13[label=""]
	f10->f17[label=""]
	f10->f13[label=""]
	f10->f17[label=""]
	f10->f18[label=""]
	f10->f19[label=""]
	f10->f13[label=""]
	f10->f19[label=""]
	f10->f13[label=""]
	f10->f17[label=""]
	f10->f19[label=""]
	f10->f13[label=""]
	f10->f19[label=""]
	f10->f13[label=""]
	f10->f19[label=""]
	f10->f13[label=""]
	f10->f17[label=""]
	f10->f13[label=""]
	f10->f19[label=""]
	f10->f13[label=""]
	f10->f19[label=""]
	f10->f13[label=""]
	f10->f19[label=""]
	f10->f18[label=""]
	f10->f19[label=""]
	f10->f18[label=""]
	f10->f11[label=""]
	f10->f11[label=""]
	f10->f11[label=""]
	f10->f11[label=""]
	f10->f13[label=""]
	f10->f11[label=""]
	f10->f16[label=""]
	f10->f16[label=""]
	f10->f6[label=""]
	f10->f14[label=""]
	f10->f14[label=""]
	f10->f6[label=""]
	f10->f6[label=""]
	f10->f15[label=""]
	f10->f11[label=""]
	f11->f20[label=""]
	f11->f7[label=""]
	f11->f20[label=""]
	f11->f7[label=""]
	f11->f7[label=""]
	f11->f16[label=""]
	f11->f7[label=""]
	f11->f7[label=""]
	f11->f16[label=""]
	f11->f7[label=""]
	f11->f16[label=""]
	f11->f7[label=""]
	f11->f7[label=""]
	f11->f6[label=""]
	f11->f16[label=""]
	f11->f7[label=""]
	f11->f21[label=""]
	f11->f7[label=""]
	f11->f7[label=""]
	f11->f7[label=""]
	f11->f7[label=""]
	f11->f21[label=""]
	f11->f7[label=""]
	f11->f21[label=""]
	f15->f19[label=""]
	f15->f19[label=""]
}
